-444.178970318633,74.8734444693388,182.446928592945
-334.057618518841,5.64067112284769,-21.1466511232633
-198.757909614919,-59.6424325630904,-181.253061971063
-332.348492124635,23.8777495839993,-0.132901710136196
-376.409558457702,33.3183048729173,111.942273902816
-325.476072002589,-34.3094715364818,-198.131669847771
147.236225378444,-65.3868722264698,35.5029189582295
126.611095799809,-115.597528778582,25.542448052688
169.704255689113,246.938456813598,-46.4217178819212
174.996623676994,199.502230432526,-23.3360746063108
132.506341348601,-48.1571271779269,34.2846707832193
182.138633677154,157.817418575233,-4.01373674557965
153.675540181346,-176.485222588086,82.3192409303268
113.766982819666,-1.8567121508036,-27.3103590848621
114.075728051627,-86.5747210429242,-1.6350266912916
110.193160363811,-132.286310216311,-21.0580931611037
103.402428407801,-196.262461469903,0.724135365153382
156.75347944071,110.562678157848,4.33391434534649
176.414987423339,106.467788642178,13.591916745297
149.753138778906,-42.4398829199077,33.7508451472809